{
    "key": "group_63450639c4fc8",
    "title": "[BLOCK] Content Block Four",
    "fields": [
        {
            "key": "field_63450639c7514",
            "label": "Primary Content",
            "name": "",
            "aria-label": "",
            "type": "tab",
            "instructions": "",
            "required": 0,
            "conditional_logic": 0,
            "wrapper": {
                "width": "",
                "class": "",
                "id": ""
            },
            "placement": "top",
            "endpoint": 0,
            "no_preference": 0,
            "acfe_field_group_condition": 0
        },
        {
            "key": "field_63450639c754e",
            "label": "",
            "name": "primary_content",
            "aria-label": "",
            "type": "group",
            "instructions": "",
            "required": 0,
            "conditional_logic": 0,
            "wrapper": {
                "width": "",
                "class": "",
                "id": ""
            },
            "layout": "block",
            "acfe_seamless_style": 0,
            "acfe_group_modal": 0,
            "acfe_field_group_condition": 0,
            "sub_fields": [
                {
                    "key": "field_63450639c9275",
                    "label": "Heading",
                    "name": "heading",
                    "aria-label": "",
                    "type": "group",
                    "instructions": "",
                    "required": 0,
                    "conditional_logic": 0,
                    "wrapper": {
                        "width": "",
                        "class": "",
                        "id": ""
                    },
                    "layout": "block",
                    "acfe_seamless_style": 1,
                    "acfe_group_modal": 0,
                    "acfe_field_group_condition": 0,
                    "sub_fields": [
                        {
                            "key": "field_63450639ca1a2",
                            "label": "Lines",
                            "name": "lines",
                            "aria-label": "",
                            "type": "repeater",
                            "instructions": "",
                            "required": 0,
                            "conditional_logic": 0,
                            "wrapper": {
                                "width": "",
                                "class": "",
                                "id": ""
                            },
                            "acfe_repeater_stylised_button": 0,
                            "collapsed": "",
                            "min": 1,
                            "max": 2,
                            "layout": "table",
                            "button_label": "Add Line",
                            "acfe_field_group_condition": 0,
                            "sub_fields": [
                                {
                                    "key": "field_63450639cb09e",
                                    "label": "Line",
                                    "name": "line",
                                    "aria-label": "",
                                    "type": "text",
                                    "instructions": "",
                                    "required": 0,
                                    "conditional_logic": 0,
                                    "wrapper": {
                                        "width": "",
                                        "class": "",
                                        "id": ""
                                    },
                                    "default_value": "",
                                    "placeholder": "",
                                    "prepend": "",
                                    "append": "",
                                    "maxlength": "",
                                    "acfe_field_group_condition": 0,
                                    "parent_repeater": "field_63450639ca1a2"
                                }
                            ],
                            "rows_per_page": 20
                        },
                        {
                            "key": "field_63450639ca1dd",
                            "label": "",
                            "name": "",
                            "aria-label": "",
                            "type": "clone",
                            "instructions": "",
                            "required": 0,
                            "conditional_logic": 0,
                            "wrapper": {
                                "width": "",
                                "class": "",
                                "id": ""
                            },
                            "clone": [
                                "group_6342dfdece22e"
                            ],
                            "display": "seamless",
                            "layout": "block",
                            "prefix_label": 0,
                            "prefix_name": 0,
                            "acfe_field_group_condition": 0
                        }
                    ]
                },
                {
                    "key": "field_63450639c92b1",
                    "label": "Content",
                    "name": "content",
                    "aria-label": "",
                    "type": "wysiwyg",
                    "instructions": "",
                    "required": 0,
                    "conditional_logic": 0,
                    "wrapper": {
                        "width": "",
                        "class": "",
                        "id": ""
                    },
                    "default_value": "",
                    "tabs": "all",
                    "toolbar": "full",
                    "media_upload": 0,
                    "delay": 0,
                    "acfe_wysiwyg_height": 300,
                    "acfe_wysiwyg_max_height": "",
                    "acfe_wysiwyg_valid_elements": "",
                    "acfe_wysiwyg_custom_style": "",
                    "acfe_wysiwyg_disable_wp_style": 0,
                    "acfe_wysiwyg_autoresize": 0,
                    "acfe_wysiwyg_disable_resize": 0,
                    "acfe_wysiwyg_remove_path": 0,
                    "acfe_wysiwyg_menubar": 0,
                    "acfe_wysiwyg_transparent": 0,
                    "acfe_wysiwyg_merge_toolbar": 0,
                    "acfe_wysiwyg_custom_toolbar": 0,
                    "acfe_field_group_condition": 0
                }
            ]
        },
        {
            "key": "field_63450639c7586",
            "label": "Dot Color",
            "name": "dot_color",
            "aria-label": "",
            "type": "clone",
            "instructions": "",
            "required": 0,
            "conditional_logic": 0,
            "wrapper": {
                "width": "",
                "class": "",
                "id": ""
            },
            "clone": [
                "group_62d9bc6dc3a05"
            ],
            "display": "seamless",
            "layout": "block",
            "prefix_label": 0,
            "prefix_name": 0,
            "acfe_field_group_condition": 0
        },
        {
            "key": "field_63450639c75be",
            "label": "Additional Content",
            "name": "",
            "aria-label": "",
            "type": "tab",
            "instructions": "",
            "required": 0,
            "conditional_logic": 0,
            "wrapper": {
                "width": "",
                "class": "",
                "id": ""
            },
            "placement": "top",
            "endpoint": 0,
            "no_preference": 0,
            "acfe_field_group_condition": 0
        },
        {
            "key": "field_63450639c75f7",
            "label": "",
            "name": "primary_list",
            "aria-label": "",
            "type": "group",
            "instructions": "",
            "required": 0,
            "conditional_logic": 0,
            "wrapper": {
                "width": "",
                "class": "",
                "id": ""
            },
            "layout": "block",
            "acfe_seamless_style": 0,
            "acfe_group_modal": 0,
            "acfe_field_group_condition": 0,
            "sub_fields": [
                {
                    "key": "field_63450639d464e",
                    "label": "Items",
                    "name": "items",
                    "aria-label": "",
                    "type": "repeater",
                    "instructions": "",
                    "required": 0,
                    "conditional_logic": 0,
                    "wrapper": {
                        "width": "",
                        "class": "",
                        "id": ""
                    },
                    "acfe_repeater_stylised_button": 0,
                    "collapsed": "",
                    "min": 0,
                    "max": 2,
                    "layout": "table",
                    "button_label": "Add Item",
                    "acfe_field_group_condition": 0,
                    "sub_fields": [
                        {
                            "key": "field_63450697c64aa",
                            "label": "Prefix",
                            "name": "prefix",
                            "aria-label": "",
                            "type": "text",
                            "instructions": "",
                            "required": 0,
                            "conditional_logic": 0,
                            "wrapper": {
                                "width": "",
                                "class": "",
                                "id": ""
                            },
                            "default_value": "",
                            "placeholder": "",
                            "prepend": "",
                            "append": "",
                            "maxlength": "",
                            "acfe_field_group_condition": 0,
                            "parent_repeater": "field_63450639d464e"
                        },
                        {
                            "key": "field_6345069dc64ab",
                            "label": "Number",
                            "name": "number",
                            "aria-label": "",
                            "type": "number",
                            "instructions": "",
                            "required": 0,
                            "conditional_logic": 0,
                            "wrapper": {
                                "width": "",
                                "class": "",
                                "id": ""
                            },
                            "default_value": "",
                            "placeholder": "",
                            "prepend": "",
                            "append": "",
                            "min": "",
                            "max": "",
                            "step": "",
                            "acfe_field_group_condition": 0,
                            "parent_repeater": "field_63450639d464e"
                        },
                        {
                            "key": "field_634506a5c64ac",
                            "label": "Label",
                            "name": "label",
                            "aria-label": "",
                            "type": "text",
                            "instructions": "",
                            "required": 0,
                            "conditional_logic": 0,
                            "wrapper": {
                                "width": "",
                                "class": "",
                                "id": ""
                            },
                            "default_value": "",
                            "placeholder": "",
                            "prepend": "",
                            "append": "",
                            "maxlength": "",
                            "acfe_field_group_condition": 0,
                            "parent_repeater": "field_63450639d464e"
                        }
                    ],
                    "rows_per_page": 20
                }
            ]
        }
    ],
    "location": [
        [
            {
                "param": "block",
                "operator": "==",
                "value": "acf\/content-block-four"
            }
        ]
    ],
    "menu_order": 0,
    "position": "normal",
    "style": "default",
    "label_placement": "left",
    "instruction_placement": "label",
    "hide_on_screen": "",
    "active": true,
    "description": "",
    "show_in_rest": 0,
    "modified": 1679922358
}