{
    "key": "group_63451196ae979",
    "title": "[BLOCK] CTA Block One",
    "fields": [
        {
            "key": "field_63451196b0d1b",
            "label": "Primary Content",
            "name": "",
            "aria-label": "",
            "type": "tab",
            "instructions": "",
            "required": 0,
            "conditional_logic": 0,
            "wrapper": {
                "width": "",
                "class": "",
                "id": ""
            },
            "placement": "top",
            "endpoint": 0,
            "no_preference": 0,
            "acfe_field_group_condition": 0
        },
        {
            "key": "field_63451196b0d56",
            "label": "",
            "name": "primary_content",
            "aria-label": "",
            "type": "group",
            "instructions": "",
            "required": 0,
            "conditional_logic": 0,
            "wrapper": {
                "width": "",
                "class": "",
                "id": ""
            },
            "layout": "block",
            "acfe_seamless_style": 0,
            "acfe_group_modal": 0,
            "acfe_field_group_condition": 0,
            "sub_fields": [
                {
                    "key": "field_63451196b28dc",
                    "label": "Heading",
                    "name": "heading",
                    "aria-label": "",
                    "type": "group",
                    "instructions": "",
                    "required": 0,
                    "conditional_logic": 0,
                    "wrapper": {
                        "width": "",
                        "class": "",
                        "id": ""
                    },
                    "layout": "block",
                    "acfe_seamless_style": 1,
                    "acfe_group_modal": 0,
                    "acfe_field_group_condition": 0,
                    "sub_fields": [
                        {
                            "key": "field_63451196b35c4",
                            "label": "Lines",
                            "name": "lines",
                            "aria-label": "",
                            "type": "repeater",
                            "instructions": "",
                            "required": 0,
                            "conditional_logic": 0,
                            "wrapper": {
                                "width": "",
                                "class": "",
                                "id": ""
                            },
                            "acfe_repeater_stylised_button": 0,
                            "collapsed": "",
                            "min": 1,
                            "max": 2,
                            "layout": "table",
                            "button_label": "Add Line",
                            "acfe_field_group_condition": 0,
                            "sub_fields": [
                                {
                                    "key": "field_63451196b4327",
                                    "label": "Line",
                                    "name": "line",
                                    "aria-label": "",
                                    "type": "text",
                                    "instructions": "",
                                    "required": 0,
                                    "conditional_logic": 0,
                                    "wrapper": {
                                        "width": "",
                                        "class": "",
                                        "id": ""
                                    },
                                    "default_value": "",
                                    "placeholder": "",
                                    "prepend": "",
                                    "append": "",
                                    "maxlength": "",
                                    "acfe_field_group_condition": 0,
                                    "parent_repeater": "field_63451196b35c4"
                                }
                            ],
                            "rows_per_page": 20
                        },
                        {
                            "key": "field_63451196b35fe",
                            "label": "",
                            "name": "",
                            "aria-label": "",
                            "type": "clone",
                            "instructions": "",
                            "required": 0,
                            "conditional_logic": 0,
                            "wrapper": {
                                "width": "",
                                "class": "",
                                "id": ""
                            },
                            "clone": [
                                "group_6342dfdece22e"
                            ],
                            "display": "seamless",
                            "layout": "block",
                            "prefix_label": 0,
                            "prefix_name": 0,
                            "acfe_field_group_condition": 0
                        }
                    ]
                }
            ]
        },
        {
            "key": "field_63451196b0d8e",
            "label": "Dot Color",
            "name": "dot_color",
            "aria-label": "",
            "type": "clone",
            "instructions": "",
            "required": 0,
            "conditional_logic": 0,
            "wrapper": {
                "width": "",
                "class": "",
                "id": ""
            },
            "clone": [
                "group_62d9bc6dc3a05"
            ],
            "display": "seamless",
            "layout": "block",
            "prefix_label": 0,
            "prefix_name": 0,
            "acfe_field_group_condition": 0
        },
        {
            "key": "field_634511b51ba22",
            "label": "Call-to-Action",
            "name": "cta",
            "aria-label": "",
            "type": "link",
            "instructions": "",
            "required": 0,
            "conditional_logic": 0,
            "wrapper": {
                "width": "",
                "class": "",
                "id": ""
            },
            "return_format": "array",
            "acfe_field_group_condition": 0
        }
    ],
    "location": [
        [
            {
                "param": "block",
                "operator": "==",
                "value": "acf\/cta-block-one"
            }
        ]
    ],
    "menu_order": 0,
    "position": "normal",
    "style": "default",
    "label_placement": "left",
    "instruction_placement": "label",
    "hide_on_screen": "",
    "active": true,
    "description": "",
    "show_in_rest": 0,
    "modified": 1679925335
}