{
    "name": "acf/case-study-flex",
    "title": "Case Study Flex",
    "description": "",
    "category": "theme",
    "icon": "admin-comments",
    "apiVersion": 2,
    "keywords": [],
    "acf": {
        "mode": "preview",
        "renderTemplate": "render.php"
    },
    "styles": [
        { "name": "default", "label": "Default", "isDefault": true }
    ],
    "supports": {
        "anchor": true,
        "color": {},
        "alignText": true,
        "spacing": {},
        "typography": {},
        "fullHeight": true
    }
}